…
The below table shows us the information about flights along with the
average delay.

``` r
arrange(flights, desc(arr_delay)) %>%
  filter(!is.na(arr_delay)) %>%
  group_by(tailnum) %>%
  summarise(mean_arr= mean(arr_delay, na.rm =T)) %>%
  arrange(desc(mean_arr))
```

    ## `summarise()` ungrouping output (override with `.groups` argument)

    ## # A tibble: 4,037 x 2
    ##    tailnum mean_arr
    ##    <chr>      <dbl>
    ##  1 N844MH      320 
    ##  2 N911DA      294 
    ##  3 N922EV      276 
    ##  4 N587NW      264 
    ##  5 N851NW      219 
    ##  6 N928DN      201 
    ##  7 N7715E      188 
    ##  8 N654UA      185 
    ##  9 N665MQ      175.
    ## 10 N427SW      157 
    ## # … with 4,027 more rows
…
``` r
flights %>% 
        group_by(dest) %>% 
        filter(!is.na(arr_delay)) %>%
  summarise(tot_delay_in_mins = sum(arr_delay[arr_delay > 0])) %>%
 arrange(tot_delay_in_mins)
```

    ## `summarise()` ungrouping output (override with `.groups` argument)

    ## # A tibble: 104 x 2
    ##    dest  tot_delay_in_mins
    ##    <chr>             <dbl>
    ##  1 LEX                   0
    ##  2 PSP                  36
    ##  3 ANC                  62
    ##  4 HDN                 119
    ##  5 SBN                 125
    ##  6 MTJ                 170
    ##  7 EYW                 194
    ##  8 BZN                 491
    ##  9 JAC                 619
    ## 10 CHO                 947
    ## # … with 94 more rows
…
###### Section 7.3.4

#### Q4.Explore the distribution of price. Do you discover anything unusual or surprising? (Hint: Carefully think about the binwidth and make sure you try a wide range of values.)

##### Solution:

Firstly, I wanted to check the columns in the diamonds data, I have
printed all the columns. We could see there are 10 columns and 53,940
rows.

``` r
diamonds
```

    ## # A tibble: 53,940 x 10
    ##    carat cut       color clarity depth table price     x     y     z
    ##    <dbl> <ord>     <ord> <ord>   <dbl> <dbl> <int> <dbl> <dbl> <dbl>
    ##  1 0.23  Ideal     E     SI2      61.5    55   326  3.95  3.98  2.43
    ##  2 0.21  Premium   E     SI1      59.8    61   326  3.89  3.84  2.31
    ##  3 0.23  Good      E     VS1      56.9    65   327  4.05  4.07  2.31
    ##  4 0.290 Premium   I     VS2      62.4    58   334  4.2   4.23  2.63
    ##  5 0.31  Good      J     SI2      63.3    58   335  4.34  4.35  2.75
    ##  6 0.24  Very Good J     VVS2     62.8    57   336  3.94  3.96  2.48
    ##  7 0.24  Very Good I     VVS1     62.3    57   336  3.95  3.98  2.47
    ##  8 0.26  Very Good H     SI1      61.9    55   337  4.07  4.11  2.53
    ##  9 0.22  Fair      E     VS2      65.1    61   337  3.87  3.78  2.49
    ## 10 0.23  Very Good H     VS1      59.4    61   338  4     4.05  2.39
    ## # … with 53,930 more rows
…
